<svg xmlns="http://www.w3.org/2000/svg" viewBox="0 0 1822 36">
  <defs>
    <style>
      .cls-1, .cls-2 {
        fill: none;
      }

      .cls-1 {
        stroke: #088da6;
      }

      .cls-2 {
        stroke: #0d97b4;
      }

      .cls-3 {
        fill: #8ed3e9;
      }
    </style>
  </defs>
  <g id="separator" transform="translate(-48.5 -976)">
    <line id="Line_1" data-name="Line 1" class="cls-1" x2="691" transform="translate(48.5 995.5)"/>
    <line id="Line_2" data-name="Line 2" class="cls-2" x2="691" transform="translate(1179.5 995.5)"/>
    <circle id="Ellipse_1" data-name="Ellipse 1" class="cls-3" cx="18" cy="18" r="18" transform="translate(724 976)"/>
    <circle id="Ellipse_2" data-name="Ellipse 2" class="cls-3" cx="18" cy="18" r="18" transform="translate(1162 976)"/>
  </g>
</svg>
